On the equivalency between frequentist Ridge (and LASSO) regression and hierarchial Bayesian regression | Computational Psychology
…
Next, we need to read in the data. Assuming that you have already downloaded the data from the link above, we can read it into R as follows:

# I was lazy and just left this in the downloads folder...
grad_dat <- read.csv("~/Downloads/Admission_Predict_Ver1.1.csv")

# View first few observations 
tbl_df(grad_dat)

## Warning: `tbl_df()` was deprecated in dplyr 1.0.0.
## Please use `tibble::as_tibble()` instead.
## This warning is displayed once every 8 hours.
## Call `lifecycle::last_warnings()` to see where this warning was generated.

## # A tibble: 500 × 9
##    Serial.No. GRE.Score TOEFL.Score University.Rating   SOP   LOR  CGPA Research
##         <int>     <int>       <int>             <int> <dbl> <dbl> <dbl>    <int>
##  1          1       337         118                 4   4.5   4.5  9.65        1
##  2          2       324         107                 4   4     4.5  8.87        1
##  3          3       316         104                 3   3     3.5  8           1
##  4          4       322         110                 3   3.5   2.5  8.67        1
##  5          5       314         103                 2   2     3    8.21        0
##  6          6       330         115                 5   4.5   3    9.34        1
##  7          7       321         109                 3   3     4    8.2         1
##  8          8       308         101                 2   3     4    7.9         0
##  9          9       302         102                 1   2     1.5  8           0
## 10         10       323         108                 3   3.5   3    8.6         0
## # … with 490 more rows, and 1 more variable: Chance.of.Admit <dbl>
…
