On the equivalency between frequentist Ridge (and LASSO) regression and hierarchial Bayesian regression | Computational Psychology
…
Next, we need to read in the data. Assuming that you have already downloaded the data from the link above, we can read it into R as follows:

# I was lazy and just left this in the downloads folder...
grad_dat <- read.csv("~/Downloads/graduate-admissions/Admission_Predict_Ver1.1.csv")

# View first few observations 
tbl_df(grad_dat)

## # A tibble: 500 x 9
##    Serial.No. GRE.Score TOEFL.Score University.Rati…   SOP   LOR  CGPA
##         <int>     <int>       <int>            <int> <dbl> <dbl> <dbl>
##  1          1       337         118                4   4.5   4.5  9.65
##  2          2       324         107                4   4     4.5  8.87
##  3          3       316         104                3   3     3.5  8   
##  4          4       322         110                3   3.5   2.5  8.67
##  5          5       314         103                2   2     3    8.21
##  6          6       330         115                5   4.5   3    9.34
##  7          7       321         109                3   3     4    8.2 
##  8          8       308         101                2   3     4    7.9 
##  9          9       302         102                1   2     1.5  8   
## 10         10       323         108                3   3.5   3    8.6 
## # … with 490 more rows, and 2 more variables: Research <int>,
## #   Chance.of.Admit <dbl>
…
